…
``` r
n_list= 2:50
probabilities=
  tibble(
    n=n_list,
    prob=map_dbl(n_list, replicate_one_n)
  )
probabilities
```

    ## # A tibble: 49 × 2
    ##        n    prob
    ##    <int>   <dbl>
    ##  1     2 0.00250
    ##  2     3 0.00730
    ##  3     4 0.0149 
    ##  4     5 0.0286 
    ##  5     6 0.0401 
    ##  6     7 0.0588 
    ##  7     8 0.0779 
    ##  8     9 0.0944 
    ##  9    10 0.115  
    ## 10    11 0.143  
    ## # ℹ 39 more rows
…
